OFF
# OpenSCAD Model

652 1288 0
-19.534443 1.3143717 -10.0001
-19.534443 1.3143717 -5.0001001
-19.50037 1.0555531 -10.0001
-19.50037 1.0555531 -5.0001001
-19.500368 1.5731903 -10.0001
-19.500368 1.5731903 -5.0001001
-19.4821 1.6336514 -10.0001
-19.4821 1.6336514 -5.0001001
-19.476154 1.6316482 -10.0001
-19.476154 1.6316482 -5.0001001
-19.400469 0.81437165 -10.0001
-19.400469 0.81437165 -5.0001001
-19.24155 0.60726494 -10.0001
-19.24155 0.60726494 -5.0001001
-19.034443 0.44834641 -10.0001
-19.034443 0.44834641 -5.0001001
-18.793262 0.348445 -10.0001
-18.793262 0.348445 -5.0001001
-18.534443 0.31437099 -10.0001
-18.534443 0.31437099 -5.0001001
-18.275625 0.34844461 -10.0001
-18.275625 0.34844461 -5.0001001
-18.034443 0.44834563 -10.0001
-18.034443 0.44834563 -5.0001001
-18.014339 5.9900804 -10.0001
-18.014339 5.9900804 -5.0001001
-18.008402 5.98808 -10.0001
-18.008402 5.98808 -5.0001001
-17.932713 6.1708131 -10.0001
-17.932713 6.1708131 -5.0001001
-17.90353 6.2182298 -10.0001
-17.90353 6.2182298 -5.0001001
-17.898735 6.2150931 -10.0001
-17.898735 6.2150931 -5.0001001
-17.827337 0.60726386 -10.0001
-17.827337 0.60726386 -5.0001001
-17.668419 0.81437033 -10.0001
-17.668419 0.81437033 -5.0001001
-17.592731 0.99709153 -10.0001
-17.592731 0.99709153 -5.0001001
-17.586777 0.99508488 -10.0001
-17.586777 0.99508488 -5.0001001
-16.159832 5.2303777 -10.0001
-16.159832 5.2303777 -5.0001001
-16.111969 -3.8586943 -10.0001
-16.111969 -3.8586943 -5.0001001
-16.111547 -3.8296874 -10.0001
-16.111547 -3.8296874 -5.0001001
-16.108164 -3.8297853 -10.0001
-16.108164 -3.8297853 -5.0001001
-16.08637 -4.0834408 -10.0001
-16.08637 -4.0834408 -5.0001001
-16.082499 -4.0825477 -10.0001
-16.082499 -4.0825477 -5.0001001
-15.999573 0.029016184 -10.0001
-15.999573 0.029016184 -5.0001001
-15.996196 0.028918238 -10.0001
-15.996196 0.028918238 -5.0001001
-15.965925 0.25884306 -10.0001
-15.965925 0.25884306 -5.0001001
-15.866024 0.50002426 -10.0001
-15.866024 0.50002426 -5.0001001
-15.707106 0.70713061 -10.0001
-15.707106 0.70713061 -5.0001001
-15.499999 0.86604869 -10.0001
-15.499999 0.86604869 -5.0001001
-15.467781 9.9418297 -10.0001
-15.467781 9.9418297 -5.0001001
-15.46298 9.9386902 -10.0001
-15.46298 9.9386902 -5.0001001
-15.338033 10.101525 -10.0001
-15.338033 10.101525 -5.0001001
-15.302925 10.13496 -10.0001
-15.302925 10.13496 -5.0001001
-15.29945 10.131131 -10.0001
-15.29945 10.131131 -5.0001001
-15.258817 0.96594858 -10.0001
-15.258817 0.96594858 -5.0001001
-15.185697 -7.98838 -10.0001
-15.185697 -7.98838 -5.0001001
-15.181816 -7.9874849 -10.0001
-15.181816 -7.9874849 -5.0001001
-15.177213 -8.0224543 -10.0001
-15.177213 -8.0224543 -5.0001001
-15.097363 -8.2271652 -10.0001
-15.097363 -8.2271652 -5.0001001
-15.0933 -8.2250385 -10.0001
-15.0933 -8.2250385 -5.0001001
-14.999998 1.000023 -10.0001
-14.999998 1.000023 -5.0001001
-14.741179 0.96594775 -10.0001
-14.741179 0.96594775 -5.0001001
-14.499999 0.86604714 -10.0001
-14.499999 0.86604714 -5.0001001
-14.292892 0.70712847 -10.0001
-14.292892 0.70712847 -5.0001001
-14.133973 0.50002164 -10.0001
-14.133973 0.50002164 -5.0001001
-14.108658 -3.7591889 -10.0001
-14.108658 -3.7591889 -5.0001001
-14.034074 0.25884011 -10.0001
-14.034074 0.25884011 -5.0001001
-14.003804 -0.028871892 -10.0001
-14.003804 -0.028871892 -5.0001001
-14.000412 -0.028970275 -10.0001
-14.000412 -0.028970275 -5.0001001
-14 2.1423777e-05 -10.0001
-14 2.1423777e-05 -5.0001001
-13.86413 8.7398787 -10.0001
-13.86413 8.7398787 -5.0001001
-13.265697 -7.4138451 -10.0001
-13.265697 -7.4138451 -5.0001001
-13.171496 -11.908565 -10.0001
-13.171496 -11.908565 -5.0001001
-13.167442 -11.906444 -10.0001
-13.167442 -11.906444 -5.0001001
-13.151458 -11.945035 -10.0001
-13.151458 -11.945035 -5.0001001
-13.025973 -12.11703 -10.0001
-13.025973 -12.11703 -5.0001001
-13.022146 -12.113557 -10.0001
-13.022146 -12.113557 -5.0001001
-12.117041 13.025965 -10.0001
-12.117041 13.025965 -5.0001001
-12.113567 13.022138 -10.0001
-12.113567 13.022138 -5.0001001
-11.945045 13.151449 -10.0001
-11.945045 13.151449 -5.0001001
-11.908574 13.171488 -10.0001
-11.908574 13.171488 -5.0001001
-11.906454 13.167434 -10.0001
-11.906454 13.167434 -5.0001001
-11.458734 -10.867953 -10.0001
-11.458734 -10.867953 -5.0001001
-10.867963 11.458725 -10.0001
-10.867963 11.458725 -5.0001001
-10.134973 -15.302917 -10.0001
-10.134973 -15.302917 -5.0001001
-10.131143 -15.299442 -10.0001
-10.131143 -15.299442 -5.0001001
-10.101538 -15.338025 -10.0001
-10.101538 -15.338025 -5.0001001
-9.9418421 -15.467773 -10.0001
-9.9418421 -15.467773 -5.0001001
-9.9387016 -15.462973 -10.0001
-9.9387016 -15.462973 -5.0001001
-8.7398891 -13.864123 -10.0001
-8.7398891 -13.864123 -5.0001001
-8.2271767 15.097358 -10.0001
-8.2271767 15.097358 -5.0001001
-8.22505 15.093293 -10.0001
-8.22505 15.093293 -5.0001001
-8.0224657 15.177206 -10.0001
-8.0224657 15.177206 -5.0001001
-7.9883919 15.18569 -10.0001
-7.9883919 15.18569 -5.0001001
-7.9874969 15.18181 -10.0001
-7.9874969 15.18181 -5.0001001
-7.4138551 13.265692 -10.0001
-7.4138551 13.265692 -5.0001001
-6.2182431 -17.903524 -10.0001
-6.2182431 -17.903524 -5.0001001
-6.215107 -17.898729 -10.0001
-6.215107 -17.898729 -5.0001001
-6.1708269 -17.932707 -10.0001
-6.1708269 -17.932707 -5.0001001
-5.9900942 -18.014334 -10.0001
-5.9900942 -18.014334 -5.0001001
-5.9880939 -18.008398 -10.0001
-5.9880939 -18.008398 -5.0001001
-5.2303901 -16.159828 -10.0001
-5.2303901 -16.159828 -5.0001001
-4.0834532 16.086369 -10.0001
-4.0834532 16.086369 -5.0001001
-4.0825601 16.082495 -10.0001
-4.0825601 16.082495 -5.0001001
-3.8587065 16.111967 -10.0001
-3.8587065 16.111967 -5.0001001
-3.8297977 16.10816 -10.0001
-3.8297977 16.10816 -5.0001001
-3.8296995 16.111546 -10.0001
-3.8296995 16.111546 -5.0001001
-3.7591996 14.108655 -10.0001
-3.7591996 14.108655 -5.0001001
-1.6336663 -19.4821 -10.0001
-1.6336663 -19.4821 -5.0001001
-1.6316631 -19.476152 -10.0001
-1.6316631 -19.476152 -5.0001001
-1.5732052 -19.500368 -10.0001
-1.5732052 -19.500368 -5.0001001
-1.3143867 -19.534441 -10.0001
-1.3143867 -19.534441 -5.0001001
-1.055568 -19.500368 -10.0001
-1.055568 -19.500368 -5.0001001
-1.0000345 -14.999998 -10.0001
-1.0000345 -14.999998 -5.0001001
-0.997105 -17.592731 -10.0001
-0.997105 -17.592731 -5.0001001
-0.99509835 -17.586775 -10.0001
-0.99509835 -17.586775 -5.0001001
-0.96596026 -15.258817 -10.0001
-0.96596026 -15.258817 -5.0001001
-0.96595907 -14.741179 -10.0001
-0.96595907 -14.741179 -5.0001001
-0.86606055 -15.499998 -10.0001
-0.86606055 -15.499998 -5.0001001
-0.86605823 -14.499998 -10.0001
-0.86605823 -14.499998 -5.0001001
-0.81438649 -19.400467 -10.0001
-0.81438649 -19.400467 -5.0001001
-0.81438386 -17.668417 -10.0001
-0.81438386 -17.668417 -5.0001001
-0.70714265 -15.707105 -10.0001
-0.70714265 -15.707105 -5.0001001
-0.70713937 -14.292891 -10.0001
-0.70713937 -14.292891 -5.0001001
-0.60727966 -19.24155 -10.0001
-0.60727966 -19.24155 -5.0001001
-0.60727751 -17.827337 -10.0001
-0.60727751 -17.827337 -5.0001001
-0.50003642 -15.866024 -10.0001
-0.50003642 -15.866024 -5.0001001
-0.50003242 -14.133973 -10.0001
-0.50003242 -14.133973 -5.0001001
-0.44836095 -19.034443 -10.0001
-0.44836095 -19.034443 -5.0001001
-0.44835943 -18.034443 -10.0001
-0.44835943 -18.034443 -5.0001001
-0.34845939 -18.793262 -10.0001
-0.34845939 -18.793262 -5.0001001
-0.34845859 -18.275625 -10.0001
-0.34845859 -18.275625 -5.0001001
-0.31438518 -18.534443 -10.0001
-0.31438518 -18.534443 -5.0001001
-0.25885528 -15.965924 -10.0001
-0.25885528 -15.965924 -5.0001001
-0.25885084 -14.034073 -10.0001
-0.25885084 -14.034073 -5.0001001
-0.029028425 -15.999573 -10.0001
-0.029028425 -15.999573 -5.0001001
-0.028980987 14.000412 -10.0001
-0.028980987 14.000412 -5.0001001
-0.028930478 -15.996196 -10.0001
-0.028930478 -15.996196 -5.0001001
-0.028882608 14.003804 -10.0001
-0.028882608 14.003804 -5.0001001
-3.2135664e-05 -14 -10.0001
-3.2135664e-05 -14 -5.0001001
1.0711889e-05 14 -10.0001
1.0711889e-05 14 -5.0001001
0.028861178 -14.003804 -10.0001
0.028861178 -14.003804 -5.0001001
0.028905999 15.996196 -10.0001
0.028905999 15.996196 -5.0001001
0.028959563 -14.000412 -10.0001
0.028959563 -14.000412 -5.0001001
0.029003941 15.999573 -10.0001
0.029003941 15.999573 -5.0001001
0.25882936 14.034074 -10.0001
0.25882936 14.034074 -5.0001001
0.25883085 15.965925 -10.0001
0.25883085 15.965925 -5.0001001
0.3143568 18.534443 -10
0.3143568 18.534443 -5
0.31441352 18.534443 -10.0001
0.31441352 18.534443 -10
0.34843063 18.275625 -10
0.34843063 18.275625 -5
0.34843063 18.793262 -10
0.34843063 18.793262 -5
0.34848657 18.275623 -10.0001
0.34848657 18.275623 -10
0.34848815 18.793261 -10.0001
0.34848815 18.793261 -10
0.44833183 18.034443 -10
0.44833183 18.034443 -5
0.44833183 19.034443 -10
0.44833183 19.034443 -5
0.44838703 18.034443 -10.0001
0.44838703 18.034443 -10
0.4483901 19.034443 -10.0001
0.4483901 19.034443 -10
0.50001079 14.133974 -10.0001
0.50001079 14.133974 -5.0001001
0.50001216 15.866025 -10.0001
0.50001216 15.866025 -5.0001001
0.60725021 17.827337 -10
0.60725021 17.827337 -5
0.60725021 19.24155 -10
0.60725021 19.24155 -5
0.60730475 17.827335 -10.0001
0.60730475 17.827335 -10
0.6073091 19.241549 -10.0001
0.6073091 19.241549 -10
0.7071175 14.292892 -10.0001
0.7071175 14.292892 -5.0001001
0.70711863 15.707106 -10.0001
0.70711863 15.707106 -5.0001001
0.8143568 17.668419 -10
0.8143568 17.668419 -5
0.8143568 19.400469 -10
0.8143568 19.400469 -5
0.81441087 17.668417 -10.0001
0.81441087 17.668417 -10
0.81441617 19.400467 -10.0001
0.81441617 19.400467 -10
0.86603606 14.499999 -10.0001
0.86603606 14.499999 -5.0001001
0.86603683 15.499999 -10.0001
0.86603683 15.499999 -5.0001001
0.96593648 14.741179 -10.0001
0.96593648 14.741179 -5.0001001
0.9659369 15.258818 -10.0001
0.9659369 15.258818 -5.0001001
0.99507141 17.586777 -10
0.99507141 17.586777 -5
0.99512523 17.586773 -10.0001
0.99512523 17.586773 -10
0.99707812 17.592733 -10
0.99707812 17.592733 -5
0.99713194 17.59273 -10.0001
0.99713194 17.59273 -10
1.0000114 14.999999 -10.0001
1.0000114 14.999999 -5.0001001
1.0555382 19.50037 -10
1.0555382 19.50037 -5
1.0555979 19.500366 -10.0001
1.0555979 19.500366 -10
1.3143568 19.534443 -10
1.3143568 19.534443 -5
1.314402 19.534437 -10
1.314402 19.534437 -5.0001001
1.3144166 19.534439 -10.0001
1.3144166 19.534439 -5.0001001
1.5731754 19.50037 -5.0001001
1.5731754 19.50037 -5
1.5732352 19.500364 -10.0001
1.5732352 19.500364 -5.0001001
1.6316333 19.476156 -5.0001001
1.6316333 19.476156 -5
1.6316391 19.476173 -10
1.6316391 19.476173 -5.0001001
1.6316929 19.476151 -10.0001
1.6316929 19.476151 -10
1.6336365 19.482101 -10
1.6336365 19.482101 -5
1.6336915 19.482082 -10
1.6336915 19.482082 -5.0001001
1.6336961 19.482096 -10.0001
1.6336961 19.482096 -5.0001001
3.7591782 -14.108661 -10.0001
3.7591782 -14.108661 -5.0001001
3.829675 -16.111551 -10.0001
3.829675 -16.111551 -5.0001001
3.8297732 -16.108166 -10.0001
3.8297732 -16.108166 -5.0001001
3.8586819 -16.111973 -10.0001
3.8586819 -16.111973 -5.0001001
4.0825353 -16.0825 -10.0001
4.0825353 -16.0825 -5.0001001
4.0834289 -16.086374 -10.0001
4.0834289 -16.086374 -5.0001001
5.2303653 16.159836 -10
5.2303653 16.159836 -5
5.2304144 16.159821 -10.0001
5.2304144 16.159821 -10
5.9880662 18.008406 -5.0001001
5.9880662 18.008406 -5
5.9881215 18.008389 -10.0001
5.9881215 18.008389 -5.0001001
5.9900665 18.014343 -5.0001001
5.9900665 18.014343 -5
5.9901218 18.014324 -10.0001
5.9901218 18.014324 -5.0001001
6.1707993 17.932716 -5.0001001
6.1707993 17.932716 -5
6.1708541 17.932697 -10.0001
6.1708541 17.932697 -5.0001001
6.2150793 17.898739 -5.0001001
6.2150793 17.898739 -5
6.2150893 17.898754 -10
6.2150893 17.898754 -5.0001001
6.2151341 17.89872 -10.0001
6.2151341 17.89872 -10
6.2182159 17.903534 -10
6.2182159 17.903534 -5
6.2182631 17.903503 -10
6.2182631 17.903503 -5.0001001
6.2182708 17.903515 -10.0001
6.2182708 17.903515 -5.0001001
7.413835 -13.265702 -10.0001
7.413835 -13.265702 -5.0001001
7.9874735 -15.181823 -10.0001
7.9874735 -15.181823 -5.0001001
7.9883685 -15.185702 -10.0001
7.9883685 -15.185702 -5.0001001
8.0224419 -15.177218 -10.0001
8.0224419 -15.177218 -5.0001001
8.2250271 -15.093306 -10.0001
8.2250271 -15.093306 -5.0001001
8.2271538 -15.09737 -10.0001
8.2271538 -15.09737 -5.0001001
8.7398682 13.864137 -10
8.7398682 13.864137 -5
8.7399101 13.86411 -10.0001
8.7399101 13.86411 -10
9.9386778 15.462988 -5.0001001
9.9386778 15.462988 -5
9.9387255 15.462957 -10.0001
9.9387255 15.462957 -5.0001001
9.9418182 15.467789 -5.0001001
9.9418182 15.467789 -5
9.9418659 15.467758 -10.0001
9.9418659 15.467758 -5.0001001
10.101514 15.33804 -5.0001001
10.101514 15.33804 -5
10.101561 15.33801 -10.0001
10.101561 15.33801 -5.0001001
10.13112 15.299458 -5.0001001
10.13112 15.299458 -5
10.131133 15.29947 -10
10.131133 15.29947 -5.0001001
10.131166 15.299427 -10.0001
10.131166 15.299427 -10
10.134949 15.302933 -10
10.134949 15.302933 -5
10.134985 15.302893 -10
10.134985 15.302893 -5.0001001
10.134995 15.302901 -10.0001
10.134995 15.302901 -5.0001001
10.867945 -11.458742 -10.0001
10.867945 -11.458742 -5.0001001
11.458717 10.867971 -10
11.458717 10.867971 -5
11.45875 10.867936 -10.0001
11.45875 10.867936 -10
11.906434 -13.167452 -10.0001
11.906434 -13.167452 -5.0001001
11.908554 -13.171506 -10.0001
11.908554 -13.171506 -5.0001001
11.945024 -13.151467 -10.0001
11.945024 -13.151467 -5.0001001
12.113547 -13.022156 -10.0001
12.113547 -13.022156 -5.0001001
12.117021 -13.025983 -10.0001
12.117021 -13.025983 -5.0001001
13.022128 12.113577 -5.0001001
13.022128 12.113577 -5
13.022165 12.113538 -10.0001
13.022165 12.113538 -5.0001001
13.025955 12.11705 -5.0001001
13.025955 12.11705 -5
13.025992 12.11701 -10.0001
13.025992 12.11701 -5.0001001
13.15144 11.945055 -5.0001001
13.15144 11.945055 -5
13.151476 11.945015 -10.0001
13.151476 11.945015 -5.0001001
13.167424 11.906464 -5.0001001
13.167424 11.906464 -5
13.16744 11.906472 -10
13.16744 11.906472 -5.0001001
13.167461 11.906424 -10.0001
13.167461 11.906424 -10
13.171478 11.908585 -10
13.171478 11.908585 -5
13.171503 11.908538 -10
13.171503 11.908538 -5.0001001
13.171515 11.908545 -10.0001
13.171515 11.908545 -5.0001001
13.265686 7.4138656 -10
13.265686 7.4138656 -5
13.265708 7.413825 -10.0001
13.265708 7.413825 -10
13.864117 -8.7398996 -10.0001
13.864117 -8.7398996 -5.0001001
14 -4.2847554e-05 -10.0001
14 -4.2847554e-05 -5.0001001
14 0 -10
14 0 -5
14.000003 -2.1423781e-05 -10
14.000003 -2.1423781e-05 -5.0001001
14.000412 0.028948851 -10.0001
14.000412 0.028948851 -5.0001001
14.000412 0.028991699 -10
14.000412 0.028991699 -5
14.000413 0.02899166 -10
14.000413 0.02899166 -5.0001001
14.003798 0.028850628 -10
14.003798 0.028850628 -5.0001001
14.003804 0.028850462 -10.0001
14.003804 0.028850462 -10
14.003804 0.028893322 -5.0001001
14.003804 0.028893322 -5
14.034073 -0.25886157 -10.0001
14.034073 -0.25886157 -5.0001001
14.034074 -0.25881863 -5.0001001
14.034074 -0.25881863 -5
14.108652 3.7592106 -10
14.108652 3.7592106 -5
14.108664 3.7591674 -10.0001
14.108664 3.7591674 -10
14.133972 -0.50004327 -10.0001
14.133972 -0.50004327 -5.0001001
14.133974 -0.5 -5.0001001
14.133974 -0.5 -5
14.292891 -0.70715034 -10.0001
14.292891 -0.70715034 -5.0001001
14.292892 -0.70710659 -5.0001001
14.292892 -0.70710659 -5
14.499997 -0.86606938 -10.0001
14.499997 -0.86606938 -5.0001001
14.5 -0.86602497 -5.0001001
14.5 -0.86602497 -5
14.741178 -0.96597034 -10.0001
14.741178 -0.96597034 -5.0001001
14.74118 -0.96592522 -5.0001001
14.74118 -0.96592522 -5
14.999997 -1.0000459 -10.0001
14.999997 -1.0000459 -5.0001001
15 -1 -5.0001001
15 -1 -5
15.093287 8.2250624 -5.0001001
15.093287 8.2250624 -5
15.093312 8.2250156 -10.0001
15.093312 8.2250156 -5.0001001
15.097351 8.2271881 -5.0001001
15.097351 8.2271881 -5
15.097376 8.2271423 -10.0001
15.097376 8.2271423 -5.0001001
15.1772 8.0224771 -5.0001001
15.1772 8.0224771 -5
15.177225 8.0224304 -10.0001
15.177225 8.0224304 -5.0001001
15.181804 7.9875083 -5.0001001
15.181804 7.9875083 -5
15.181822 7.9875126 -10
15.181822 7.9875126 -5.0001001
15.181828 7.987462 -10.0001
15.181828 7.987462 -10
15.185684 7.9884033 -10
15.185684 7.9884033 -5
15.185696 7.9883537 -10
15.185696 7.9883537 -5.0001001
15.185709 7.9883571 -10.0001
15.185709 7.9883571 -5.0001001
15.258816 -0.96597189 -10.0001
15.258816 -0.96597189 -5.0001001
15.258819 -0.96592522 -5.0001001
15.258819 -0.96592522 -5
15.299435 -10.131154 -10.0001
15.299435 -10.131154 -5.0001001
15.30291 -10.134984 -10.0001
15.30291 -10.134984 -5.0001001
15.338017 -10.101549 -10.0001
15.338017 -10.101549 -5.0001001
15.462965 -9.9387131 -10.0001
15.462965 -9.9387131 -5.0001001
15.467766 -9.9418535 -10.0001
15.467766 -9.9418535 -5.0001001
15.499997 -0.86607242 -10.0001
15.499997 -0.86607242 -5.0001001
15.5 -0.86602497 -5.0001001
15.5 -0.86602497 -5
15.707105 -0.70715469 -10.0001
15.707105 -0.70715469 -5.0001001
15.707107 -0.70710659 -5.0001001
15.707107 -0.70710659 -5
15.866023 -0.50004858 -10.0001
15.866023 -0.50004858 -5.0001001
15.866025 -0.5 -5.0001001
15.866025 -0.5 -5
15.965924 -0.2588675 -10.0001
15.965924 -0.2588675 -5.0001001
15.965925 -0.25881863 -5.0001001
15.965925 -0.25881863 -5
15.996196 -0.028942717 -10.0001
15.996196 -0.028942717 -5.0001001
15.996196 -0.028893759 -5.0001001
15.996196 -0.028893759 -5
15.999573 -0.029040666 -10.0001
15.999573 -0.029040666 -5.0001001
15.999573 -0.028991699 -5.0001001
15.999573 -0.028991699 -5
16.082491 4.0825725 -5.0001001
16.082491 4.0825725 -5
16.082504 4.0825229 -10.0001
16.082504 4.0825229 -5.0001001
16.086365 4.0834656 -5.0001001
16.086365 4.0834656 -5
16.086378 4.0834165 -10.0001
16.086378 4.0834165 -5.0001001
16.108158 3.8298101 -5.0001001
16.108158 3.8298101 -5
16.10817 3.8297608 -10.0001
16.10817 3.8297608 -10
16.108175 3.8298097 -10
16.108175 3.8298097 -5.0001001
16.11154 3.829663 -10
16.11154 3.829663 -5.0001001
16.111542 3.8297119 -10
16.111542 3.8297119 -5
16.111553 3.8296626 -10.0001
16.111553 3.8296626 -5.0001001
16.111963 3.8587189 -5.0001001
16.111963 3.8587189 -5
16.111975 3.8586695 -10.0001
16.111975 3.8586695 -5.0001001
16.159824 -5.230402 -10.0001
16.159824 -5.230402 -5.0001001
17.586775 -0.99511176 -10.0001
17.586775 -0.99511176 -5.0001001
17.59273 -0.99711847 -10.0001
17.59273 -0.99711847 -5.0001001
17.668417 -0.81439734 -10.0001
17.668417 -0.81439734 -5.0001001
17.827335 -0.60729116 -10.0001
17.827335 -0.60729116 -5.0001001
17.898726 -6.2151203 -10.0001
17.898726 -6.2151203 -5.0001001
17.903521 -6.218257 -10.0001
17.903521 -6.218257 -5.0001001
17.932703 -6.1708403 -10.0001
17.932703 -6.1708403 -5.0001001
18.008392 -5.9881077 -10.0001
18.008392 -5.9881077 -5.0001001
18.01433 -5.990108 -10.0001
18.01433 -5.990108 -5.0001001
18.034443 -0.44837323 -10.0001
18.034443 -0.44837323 -5.0001001
18.275625 -0.3484726 -10.0001
18.275625 -0.3484726 -5.0001001
18.534443 -0.31439936 -10.0001
18.534443 -0.31439936 -5.0001001
18.793262 -0.34847376 -10.0001
18.793262 -0.34847376 -5.0001001
19.034443 -0.44837552 -10.0001
19.034443 -0.44837552 -5.0001001
19.241549 -0.60729438 -10.0001
19.241549 -0.60729438 -5.0001001
19.400467 -0.81440133 -10.0001
19.400467 -0.81440133 -5.0001001
19.476152 -1.631678 -10.0001
19.476152 -1.631678 -5.0001001
19.482098 -1.6336812 -10.0001
19.482098 -1.6336812 -5.0001001
19.500366 -1.5732201 -10.0001
19.500366 -1.5732201 -5.0001001
19.500368 -1.0555829 -10.0001
19.500368 -1.0555829 -5.0001001
19.534441 -1.3144016 -10.0001
19.534441 -1.3144016 -5.0001001
3 575 578 579
3 578 575 574
3 548 563 549
3 563 548 562
3 481 478 480
3 478 481 479
3 497 481 496
3 481 497 479
3 516 521 517
3 521 516 520
3 571 574 575
3 574 571 570
3 504 497 496
3 497 504 505
3 567 570 571
3 570 567 566
3 562 567 563
3 567 562 566
3 488 478 489
3 489 493 492
3 489 479 493
3 479 489 478
3 508 505 504
3 505 508 509
3 484 501 486
3 501 484 498
3 498 473 501
3 470 473 498
3 470 435 473
3 432 435 470
3 432 405 435
3 402 405 432
3 402 365 405
3 362 365 402
3 362 317 365
3 317 362 314
3 317 318 321
3 318 317 314
3 318 303 321
3 298 303 318
3 298 291 303
3 286 291 298
3 286 279 291
3 274 279 286
3 274 271 279
3 266 271 274
3 266 265 271
3 265 266 262
3 327 328 330
3 327 324 328
3 305 324 327
3 305 300 324
3 293 300 305
3 293 288 300
3 281 288 293
3 281 276 288
3 273 276 281
3 273 268 276
3 265 268 273
3 268 265 262
3 598 596 600
3 596 598 595
3 478 491 480
3 491 478 488
3 536 542 539
3 542 536 540
3 460 466 463
3 466 460 464
3 420 426 423
3 426 420 424
3 380 386 383
3 386 380 384
3 340 346 343
3 346 340 344
3 512 517 513
3 517 512 516
3 520 549 521
3 549 520 548
3 508 513 509
3 513 508 512
3 605 585 593
3 593 583 601
3 517 593 585
3 301 319 325
3 289 319 301
3 277 319 289
3 319 287 299
3 275 319 277
3 319 275 287
3 269 275 277
3 269 267 275
3 267 269 263
3 339 367 371
3 339 371 345
3 367 339 363
3 329 339 335
3 325 339 329
3 339 325 319
3 339 319 363
3 363 319 315
3 379 407 411
3 379 411 385
3 407 379 403
3 367 379 375
3 379 367 363
3 379 363 403
3 419 447 451
3 419 451 425
3 447 419 433
3 407 419 415
3 419 407 403
3 419 403 433
3 579 517 521
3 535 499 517
3 493 517 499
3 517 493 513
3 513 493 509
3 535 471 499
3 459 523 527
3 459 527 465
3 523 459 471
3 447 459 455
3 459 447 433
3 459 433 471
3 593 579 583
3 593 517 579
3 571 579 521
3 579 571 575
3 571 521 567
3 567 521 563
3 541 585 589
3 535 585 541
3 517 585 535
3 523 535 531
3 471 535 523
3 563 521 549
3 509 493 505
3 505 493 497
3 493 499 485
3 497 493 479
3 605 584 585
3 584 605 604
3 593 604 605
3 604 593 592
3 601 599 600
3 583 599 601
3 599 583 582
3 600 599 598
3 484 499 498
3 499 484 485
3 485 487 493
3 484 487 485
3 487 484 486
3 493 487 492
3 578 583 579
3 583 578 582
3 601 597 593
3 600 597 601
3 597 600 596
3 593 597 592
3 535 530 531
3 530 535 534
3 531 522 523
3 522 531 530
3 541 537 535
3 540 537 541
3 537 540 536
3 535 537 534
3 541 543 540
3 589 543 541
3 543 589 588
3 540 543 542
3 584 589 585
3 589 584 588
3 498 471 470
3 471 498 499
3 455 446 447
3 446 455 454
3 459 454 455
3 454 459 458
3 522 527 523
3 527 522 526
3 470 433 432
3 433 470 471
3 465 461 459
3 464 461 465
3 461 464 460
3 459 461 458
3 465 467 464
3 527 467 465
3 467 527 526
3 464 467 466
3 419 414 415
3 414 419 418
3 414 407 415
3 407 414 406
3 425 421 419
3 424 421 425
3 421 424 420
3 419 421 418
3 425 427 424
3 451 427 425
3 427 451 450
3 424 427 426
3 432 403 402
3 403 432 433
3 446 451 447
3 451 446 450
3 374 367 375
3 367 374 366
3 378 375 379
3 375 378 374
3 407 410 411
3 410 407 406
3 362 403 363
3 403 362 402
3 381 384 380
3 384 381 385
3 379 381 378
3 381 379 385
3 387 411 410
3 411 387 385
3 384 387 386
3 387 384 385
3 262 269 268
3 269 262 263
3 338 335 339
3 335 338 334
3 268 277 276
3 277 268 269
3 324 301 325
3 301 324 300
3 286 299 287
3 299 286 298
3 274 267 266
3 267 274 275
3 300 289 301
3 289 300 288
3 276 289 288
3 289 276 277
3 266 263 262
3 263 266 267
3 331 335 334
3 335 331 329
3 328 331 330
3 331 328 329
3 298 319 299
3 319 298 318
3 286 275 274
3 275 286 287
3 328 325 329
3 325 328 324
3 314 319 318
3 319 314 315
3 341 344 340
3 344 341 345
3 339 341 338
3 341 339 345
3 347 371 370
3 371 347 345
3 344 347 346
3 347 344 345
3 367 370 371
3 370 367 366
3 314 363 315
3 363 314 362
3 260 253 261
3 253 260 252
3 313 308 309
3 308 313 312
3 248 259 249
3 259 248 258
3 311 322 323
3 322 311 310
3 284 261 285
3 261 284 260
3 258 283 259
3 283 258 282
3 296 285 297
3 285 296 284
3 309 296 297
3 296 309 308
3 244 249 245
3 249 244 248
3 282 295 283
3 295 282 294
3 310 312 322
3 310 308 312
3 306 308 310
3 306 296 308
3 294 296 306
3 294 284 296
3 282 284 294
3 252 284 282
3 244 282 258
3 284 252 260
3 244 258 248
3 282 244 252
3 182 252 244
3 182 244 240
3 178 252 182
3 252 178 256
3 256 178 180
3 174 178 182
3 178 174 176
3 158 174 182
3 156 174 158
3 174 156 172
3 172 156 154
3 2 8 10
3 0 8 2
3 8 0 4
3 42 28 32
3 38 26 28
3 38 8 26
3 38 22 8
3 8 22 20
3 8 20 18
3 8 18 16
3 8 16 14
3 8 14 12
3 8 12 10
3 26 8 24
3 24 8 6
3 68 74 108
3 74 68 70
3 42 68 108
3 32 68 42
3 38 42 40
3 28 42 38
3 34 38 36
3 22 38 34
3 68 32 66
3 66 32 30
3 124 130 134
3 130 124 126
3 108 124 134
3 74 124 108
3 124 74 122
3 122 74 72
3 150 156 158
3 156 150 152
3 134 150 158
3 130 150 134
3 150 130 148
3 148 130 128
3 307 310 311
3 310 307 306
3 323 312 313
3 312 323 322
3 295 306 307
3 306 295 294
3 259 245 249
3 179 253 257
3 245 183 241
3 253 183 245
3 179 257 181
3 253 179 183
3 175 179 177
3 179 175 183
3 157 175 173
3 175 159 183
3 175 157 159
3 157 173 155
3 313 311 323
3 309 311 313
3 309 307 311
3 297 307 309
3 297 295 307
3 285 295 297
3 285 283 295
3 253 285 261
3 285 253 283
3 245 283 253
3 283 245 259
3 151 157 153
3 157 151 159
3 131 151 149
3 151 135 159
3 151 131 135
3 131 149 129
3 125 131 127
3 131 125 135
3 75 125 123
3 125 109 135
3 125 75 109
3 75 123 73
3 69 75 71
3 75 69 109
3 33 69 67
3 69 43 109
3 69 33 43
3 27 43 33
3 9 43 27
3 43 39 41
3 43 9 39
3 33 67 31
3 27 33 29
3 23 39 9
3 9 27 25
3 39 35 37
3 39 23 35
3 23 9 21
3 21 9 19
3 19 9 17
3 17 9 15
3 15 9 13
3 13 9 11
3 9 25 7
3 1 9 5
3 9 3 11
3 9 1 3
3 176 175 177
3 175 176 174
3 178 177 179
3 177 178 176
3 256 181 257
3 181 256 180
3 182 241 183
3 241 182 240
3 241 244 245
3 244 241 240
3 253 256 257
3 256 253 252
3 178 181 180
3 181 178 179
3 156 153 157
3 153 156 152
3 152 151 153
3 151 152 150
3 156 155 154
3 155 156 157
3 172 155 173
3 155 172 154
3 175 172 173
3 172 175 174
3 158 183 159
3 183 158 182
3 126 125 127
3 125 126 124
3 130 127 131
3 127 130 126
3 151 148 149
3 148 151 150
3 134 159 135
3 159 134 158
3 130 129 128
3 129 130 131
3 148 129 149
3 129 148 128
3 74 71 75
3 71 74 70
3 68 71 70
3 71 68 69
3 74 73 72
3 73 74 75
3 122 73 123
3 73 122 72
3 108 135 109
3 135 108 134
3 125 122 123
3 122 125 124
3 26 29 28
3 29 26 27
3 28 33 32
3 33 28 29
3 68 67 69
3 67 68 66
3 43 108 109
3 108 43 42
3 30 33 31
3 33 30 32
3 30 67 66
3 67 30 31
3 16 19 17
3 19 16 18
3 4 9 8
3 9 4 5
3 14 17 15
3 17 14 16
3 10 3 2
3 3 10 11
3 35 36 37
3 36 35 34
3 20 23 21
3 23 20 22
3 12 11 10
3 11 12 13
3 12 15 13
3 15 12 14
3 18 21 19
3 21 18 20
3 0 5 4
3 5 0 1
3 37 38 39
3 38 37 36
3 22 35 23
3 35 22 34
3 2 1 0
3 1 2 3
3 38 41 39
3 41 38 40
3 6 9 7
3 9 6 8
3 6 25 24
3 25 6 7
3 26 25 27
3 25 26 24
3 41 42 43
3 42 41 40
3 56 59 58
3 59 56 57
3 76 65 77
3 65 76 64
3 107 100 101
3 100 107 106
3 90 89 91
3 89 90 88
3 58 61 60
3 61 58 59
3 101 96 97
3 96 101 100
3 60 63 62
3 63 60 61
3 64 63 65
3 63 64 62
3 103 106 107
3 106 103 102
3 97 94 95
3 94 97 96
3 228 230 232
3 228 226 230
3 224 226 228
3 196 226 224
3 196 224 216
3 226 196 218
3 196 216 208
3 218 196 210
3 196 208 192
3 186 192 190
3 186 190 188
3 192 186 196
3 170 196 186
3 196 170 198
3 168 186 184
3 186 168 170
3 168 184 166
3 52 44 48
3 162 168 164
3 168 162 170
3 144 162 160
3 162 146 170
3 162 144 146
3 144 160 142
3 138 144 140
3 144 138 146
3 120 138 136
3 138 132 146
3 138 120 132
3 120 136 118
3 114 120 116
3 120 114 132
3 86 114 112
3 114 110 132
3 114 86 110
3 102 94 96
3 102 56 94
3 94 56 92
3 80 110 86
3 110 80 98
3 52 98 80
3 86 112 84
3 98 102 104
3 56 102 98
3 102 96 100
3 106 102 100
3 80 86 82
3 48 98 52
3 52 80 78
3 56 98 48
3 92 56 90
3 90 56 88
3 88 56 76
3 76 56 64
3 60 56 58
3 64 56 62
3 62 56 60
3 52 78 50
3 56 48 54
3 54 48 46
3 92 91 93
3 91 92 90
3 88 77 89
3 77 88 76
3 94 93 95
3 93 94 92
3 107 101 103
3 103 99 105
3 97 103 101
3 103 97 57
3 115 121 133
3 121 115 117
3 111 115 133
3 87 115 111
3 81 111 99
3 57 97 95
3 57 95 93
3 57 93 91
3 103 57 99
3 57 91 89
3 115 87 113
3 113 87 85
3 139 145 147
3 145 139 141
3 133 139 147
3 121 139 133
3 139 121 137
3 137 121 119
3 163 169 171
3 169 163 165
3 147 163 171
3 145 163 147
3 163 145 161
3 161 145 143
3 187 193 197
3 193 187 191
3 191 187 189
3 171 197 199
3 197 171 187
3 169 187 171
3 187 169 185
3 185 169 167
3 231 229 233
3 227 229 231
3 227 225 229
3 197 227 219
3 227 197 225
3 197 219 211
3 225 197 217
3 217 197 209
3 209 197 193
3 99 49 53
3 49 55 47
3 111 81 87
3 87 81 83
3 99 53 81
3 57 89 77
3 57 77 65
3 57 65 63
3 57 63 61
3 57 61 59
3 99 57 49
3 49 57 55
3 81 53 79
3 79 53 51
3 53 49 45
3 52 45 44
3 45 52 53
3 44 49 48
3 49 44 45
3 46 55 54
3 55 46 47
3 99 104 105
3 104 99 98
3 104 103 105
3 103 104 102
3 56 55 57
3 55 56 54
3 46 49 47
3 49 46 48
3 82 81 80
3 81 82 83
3 86 83 82
3 83 86 87
3 78 81 79
3 81 78 80
3 78 51 50
3 51 78 79
3 52 51 53
3 51 52 50
3 111 98 99
3 98 111 110
3 120 117 116
3 117 120 121
3 116 115 114
3 115 116 117
3 86 85 87
3 85 86 84
3 133 110 111
3 110 133 132
3 112 115 113
3 115 112 114
3 112 85 84
3 85 112 113
3 140 139 138
3 139 140 141
3 140 145 141
3 145 140 144
3 136 139 137
3 139 136 138
3 136 119 118
3 119 136 137
3 147 132 133
3 132 147 146
3 120 119 121
3 119 120 118
3 164 169 165
3 169 164 168
3 162 165 163
3 165 162 164
3 142 145 144
3 145 142 143
3 170 147 171
3 147 170 146
3 161 162 163
3 162 161 160
3 142 161 143
3 161 142 160
3 229 232 233
3 232 229 228
3 186 189 187
3 189 186 188
3 225 228 229
3 228 225 224
3 192 209 193
3 209 192 208
3 218 211 219
3 211 218 210
3 231 226 227
3 226 231 230
3 208 217 209
3 217 208 216
3 217 224 225
3 224 217 216
3 233 230 231
3 230 233 232
3 188 191 189
3 191 188 190
3 210 197 211
3 197 210 196
3 227 218 219
3 218 227 226
3 190 193 191
3 193 190 192
3 197 198 199
3 198 197 196
3 185 186 187
3 186 185 184
3 166 185 167
3 185 166 184
3 166 169 168
3 169 166 167
3 198 171 199
3 171 198 170
3 234 243 235
3 243 234 242
3 204 201 200
3 201 204 205
3 246 237 247
3 237 246 236
3 194 203 202
3 203 194 195
3 220 235 221
3 235 220 234
3 236 223 237
3 223 236 222
3 212 221 213
3 221 212 220
3 212 205 204
3 205 212 213
3 250 247 251
3 247 250 246
3 222 215 223
3 215 222 214
3 358 392 394
3 358 394 360
3 392 358 390
3 354 358 356
3 358 354 350
3 358 350 390
3 242 354 352
3 354 242 350
3 350 250 254
3 350 242 250
3 222 250 242
3 242 352 238
3 398 436 438
3 398 438 400
3 436 398 430
3 392 398 396
3 398 392 390
3 398 390 430
3 442 550 552
3 442 552 444
3 550 442 474
3 436 442 440
3 442 436 430
3 442 430 474
3 642 614 616
3 624 612 614
3 624 608 612
3 612 608 610
3 556 618 620
3 556 620 558
3 618 556 608
3 550 556 554
3 556 550 474
3 556 474 608
3 642 638 640
3 642 636 638
3 642 634 636
3 642 632 634
3 642 630 632
3 642 628 630
3 626 642 644
3 624 642 626
3 614 642 624
3 618 624 622
3 608 624 618
3 642 616 628
3 642 650 646
3 650 642 648
3 648 642 640
3 250 236 246
3 220 242 234
3 250 222 236
3 242 220 222
3 220 214 222
3 212 214 220
3 212 206 214
3 204 206 212
3 204 202 206
3 200 202 204
3 202 200 194
3 202 207 206
3 207 202 203
3 200 195 194
3 195 200 201
3 206 215 214
3 215 206 207
3 643 651 649
3 651 643 647
3 643 649 641
3 639 643 641
3 637 643 639
3 635 643 637
3 633 643 635
3 631 643 633
3 629 643 631
3 643 627 645
3 613 643 629
3 609 643 613
3 643 625 627
3 643 609 625
3 613 629 617
3 613 617 615
3 619 625 609
3 609 613 611
3 625 619 623
3 557 619 609
3 619 557 621
3 621 557 559
3 475 557 609
3 551 557 475
3 557 551 555
3 443 551 475
3 551 443 553
3 553 443 445
3 431 443 475
3 437 443 431
3 443 437 441
3 399 437 431
3 437 399 439
3 439 399 401
3 391 399 431
3 393 399 391
3 399 393 397
3 359 393 391
3 393 359 395
3 395 359 361
3 351 359 391
3 355 359 351
3 359 355 357
3 243 355 351
3 251 351 255
3 243 351 251
3 237 251 247
3 355 243 353
3 353 243 239
3 223 251 237
3 251 223 243
3 221 243 223
3 243 221 235
3 215 221 223
3 215 213 221
3 207 213 215
3 207 205 213
3 203 205 207
3 203 201 205
3 201 203 195
3 356 359 357
3 359 356 358
3 354 357 355
3 357 354 356
3 238 353 239
3 353 238 352
3 350 255 351
3 255 350 254
3 250 255 254
3 255 250 251
3 238 243 242
3 243 238 239
3 353 354 355
3 354 353 352
3 392 397 393
3 397 392 396
3 396 399 397
3 399 396 398
3 395 392 393
3 392 395 394
3 360 395 361
3 395 360 394
3 360 359 358
3 359 360 361
3 390 351 391
3 351 390 350
3 440 443 441
3 443 440 442
3 436 441 437
3 441 436 440
3 400 399 398
3 399 400 401
3 430 391 431
3 391 430 390
3 439 436 437
3 436 439 438
3 400 439 401
3 439 400 438
3 550 555 551
3 555 550 554
3 555 556 557
3 556 555 554
3 553 550 551
3 550 553 552
3 444 553 445
3 553 444 552
3 474 431 475
3 431 474 430
3 444 443 442
3 443 444 445
3 623 624 625
3 624 623 622
3 619 622 623
3 622 619 618
3 556 559 557
3 559 556 558
3 474 609 608
3 609 474 475
3 620 619 621
3 619 620 618
3 559 620 621
3 620 559 558
3 634 633 635
3 633 634 632
3 643 646 647
3 646 643 642
3 636 635 637
3 635 636 634
3 649 640 641
3 640 649 648
3 614 617 616
3 617 614 615
3 630 629 631
3 629 630 628
3 641 638 639
3 638 641 640
3 638 637 639
3 637 638 636
3 632 631 633
3 631 632 630
3 647 650 651
3 650 647 646
3 612 615 614
3 615 612 613
3 628 617 629
3 617 628 616
3 651 648 649
3 648 651 650
3 612 611 613
3 611 612 610
3 644 643 645
3 643 644 642
3 627 644 645
3 644 627 626
3 624 627 625
3 627 624 626
3 608 611 610
3 611 608 609
3 573 576 577
3 576 573 572
3 546 561 547
3 561 546 560
3 494 477 476
3 477 494 495
3 514 519 515
3 519 514 518
3 569 572 573
3 572 569 568
3 502 495 494
3 495 502 503
3 565 568 569
3 568 565 564
3 560 565 561
3 565 560 564
3 490 480 491
3 476 480 490
3 477 480 476
3 480 477 481
3 506 503 502
3 503 506 507
3 494 476 490
3 502 490 576
3 576 490 500
3 500 490 482
3 576 594 580
3 580 594 602
3 606 594 586
3 500 594 576
3 568 576 572
3 576 568 502
3 502 568 564
3 502 564 560
3 502 560 546
3 586 544 590
3 490 502 494
3 538 586 500
3 586 538 544
3 472 538 500
3 502 546 518
3 502 518 514
3 502 514 510
3 502 510 506
3 594 500 586
3 524 538 472
3 538 524 532
3 462 524 472
3 524 462 528
3 528 462 468
3 434 462 472
3 448 462 434
3 462 448 456
3 422 448 434
3 448 422 452
3 452 422 428
3 404 422 434
3 408 422 404
3 422 408 416
3 382 408 404
3 408 382 412
3 412 382 388
3 364 382 404
3 368 382 364
3 382 368 376
3 342 368 364
3 368 342 372
3 372 342 348
3 320 342 364
3 326 342 320
3 342 332 336
3 342 326 332
3 320 364 316
3 320 304 326
3 290 320 302
3 320 292 304
3 278 320 290
3 320 280 292
3 320 278 280
3 278 272 280
3 270 272 278
3 272 270 264
3 510 515 511
3 515 510 514
3 518 547 519
3 547 518 546
3 506 511 507
3 511 506 510
3 582 603 599
3 582 581 603
3 577 582 578
3 582 577 581
3 574 577 578
3 574 573 577
3 570 573 574
3 570 569 573
3 566 569 570
3 566 565 569
3 562 565 566
3 562 561 565
3 548 561 562
3 548 547 561
3 520 547 548
3 520 519 547
3 515 520 516
3 520 515 519
3 511 516 512
3 516 511 515
3 507 512 508
3 512 507 511
3 503 508 504
3 508 503 507
3 495 504 496
3 504 495 503
3 477 496 481
3 496 477 495
3 487 489 492
3 489 487 483
3 545 588 591
3 588 545 543
3 588 587 591
3 587 588 584
3 587 604 607
3 604 587 584
3 592 607 604
3 607 592 597
3 469 526 529
3 526 469 467
3 526 525 529
3 525 526 522
3 533 534 537
3 533 530 534
3 525 530 533
3 530 525 522
3 429 450 453
3 450 429 427
3 450 449 453
3 449 450 446
3 457 458 461
3 457 454 458
3 449 454 457
3 454 449 446
3 389 410 413
3 410 389 387
3 410 409 413
3 409 410 406
3 417 418 421
3 417 414 418
3 409 414 417
3 414 409 406
3 370 369 373
3 369 370 366
3 377 378 381
3 377 374 378
3 369 374 377
3 374 369 366
3 349 347 370
3 370 373 349
3 337 338 341
3 337 334 338
3 333 334 337
3 334 333 331
3 607 586 587
3 586 607 606
3 597 606 607
3 596 606 597
3 594 596 595
3 596 594 606
3 581 602 603
3 602 581 580
3 500 486 501
3 482 486 500
3 483 486 482
3 486 483 487
3 483 488 489
3 482 488 483
3 490 488 482
3 488 490 491
3 576 581 577
3 581 576 580
3 603 598 599
3 602 598 603
3 594 598 602
3 598 594 595
3 537 532 533
3 536 532 537
3 538 536 539
3 536 538 532
3 533 524 525
3 524 533 532
3 545 542 543
3 544 542 545
3 538 542 544
3 542 538 539
3 591 544 545
3 544 591 590
3 586 591 587
3 591 586 590
3 500 473 472
3 473 500 501
3 457 448 449
3 448 457 456
3 461 456 457
3 460 456 461
3 462 460 463
3 460 462 456
3 524 529 525
3 529 524 528
3 472 435 434
3 435 472 473
3 469 466 467
3 468 466 469
3 462 466 468
3 466 462 463
3 529 468 469
3 468 529 528
3 421 416 417
3 420 416 421
3 422 420 423
3 420 422 416
3 416 409 417
3 409 416 408
3 429 426 427
3 428 426 429
3 422 426 428
3 426 422 423
3 453 428 429
3 428 453 452
3 434 405 404
3 405 434 435
3 448 453 449
3 453 448 452
3 376 369 377
3 369 376 368
3 383 382 380
3 380 377 381
3 380 376 377
3 376 380 382
3 409 412 413
3 412 409 408
3 364 405 365
3 405 364 404
3 388 386 389
3 382 386 388
3 386 382 383
3 389 386 387
3 412 389 413
3 389 412 388
3 264 273 272
3 273 264 265
3 343 342 340
3 340 337 341
3 340 336 337
3 336 340 342
3 272 281 280
3 281 272 273
3 326 305 327
3 305 326 304
3 290 303 291
3 303 290 302
3 278 271 270
3 271 278 279
3 304 293 305
3 293 304 292
3 280 293 292
3 293 280 281
3 270 265 264
3 265 270 271
3 336 333 337
3 333 336 332
3 302 321 303
3 321 302 320
3 290 279 278
3 279 290 291
3 333 330 331
3 332 330 333
3 326 330 332
3 330 326 327
3 316 321 320
3 321 316 317
3 348 346 349
3 342 346 348
3 346 342 343
3 349 346 347
3 372 349 373
3 349 372 348
3 369 372 373
3 372 369 368
3 316 365 317
3 365 316 364
